(kicad_pcb (version 20211014) (generator pcbnew)

  (general
    (thickness 1.6)
  )

  (paper "A4")
  (layers
    (0 "F.Cu" signal)
    (31 "B.Cu" signal)
    (32 "B.Adhes" user "B.Adhesive")
    (33 "F.Adhes" user "F.Adhesive")
    (34 "B.Paste" user)
    (35 "F.Paste" user)
    (36 "B.SilkS" user "B.Silkscreen")
    (37 "F.SilkS" user "F.Silkscreen")
    (38 "B.Mask" user)
    (39 "F.Mask" user)
    (40 "Dwgs.User" user "User.Drawings")
    (41 "Cmts.User" user "User.Comments")
    (42 "Eco1.User" user "User.Eco1")
    (43 "Eco2.User" user "User.Eco2")
    (44 "Edge.Cuts" user)
    (45 "Margin" user)
    (46 "B.CrtYd" user "B.Courtyard")
    (47 "F.CrtYd" user "F.Courtyard")
    (48 "B.Fab" user)
    (49 "F.Fab" user)
    (50 "User.1" user)
    (51 "User.2" user)
    (52 "User.3" user)
    (53 "User.4" user)
    (54 "User.5" user)
    (55 "User.6" user)
    (56 "User.7" user)
    (57 "User.8" user)
    (58 "User.9" user)
  )

  (setup
    (pad_to_mask_clearance 0)
    (pcbplotparams
      (layerselection 0x00010fc_ffffffff)
      (disableapertmacros false)
      (usegerberextensions false)
      (usegerberattributes true)
      (usegerberadvancedattributes true)
      (creategerberjobfile true)
      (svguseinch false)
      (svgprecision 6)
      (excludeedgelayer true)
      (plotframeref false)
      (viasonmask false)
      (mode 1)
      (useauxorigin false)
      (hpglpennumber 1)
      (hpglpenspeed 20)
      (hpglpendiameter 15.000000)
      (dxfpolygonmode true)
      (dxfimperialunits true)
      (dxfusepcbnewfont true)
      (psnegative false)
      (psa4output false)
      (plotreference true)
      (plotvalue true)
      (plotinvisibletext false)
      (sketchpadsonfab false)
      (subtractmaskfromsilk false)
      (outputformat 1)
      (mirror false)
      (drillshape 1)
      (scaleselection 1)
      (outputdirectory "")
    )
  )

  (net 0 "")
  (net 1 "unconnected-(IC1-Pad1)")
  (net 2 "unconnected-(IC1-Pad2)")
  (net 3 "unconnected-(IC1-Pad3)")
  (net 4 "unconnected-(IC1-Pad4)")
  (net 5 "unconnected-(IC1-Pad5)")
  (net 6 "unconnected-(IC1-Pad8)")
  (net 7 "unconnected-(IC1-Pad11)")
  (net 8 "unconnected-(IC1-Pad12)")
  (net 9 "unconnected-(IC1-Pad13)")
  (net 10 "unconnected-(IC1-Pad14)")
  (net 11 "unconnected-(IC1-Pad15)")
  (net 12 "unconnected-(IC1-Pad16)")
  (net 13 "unconnected-(IC1-Pad17)")
  (net 14 "unconnected-(IC1-Pad18)")
  (net 15 "unconnected-(U2-Pad14)")
  (net 16 "unconnected-(U2-Pad13)")
  (net 17 "unconnected-(U2-Pad12)")
  (net 18 "unconnected-(U2-Pad11)")
  (net 19 "unconnected-(U2-Pad10)")
  (net 20 "unconnected-(U2-Pad9)")
  (net 21 "unconnected-(U2-Pad7)")
  (net 22 "unconnected-(U2-Pad6)")
  (net 23 "unconnected-(U2-Pad4)")
  (net 24 "unconnected-(U2-Pad19)")
  (net 25 "unconnected-(U2-Pad21)")
  (net 26 "unconnected-(U2-Pad22)")
  (net 27 "+3V3")
  (net 28 "GND")
  (net 29 "unconnected-(U2-Pad2)")
  (net 30 "/SDA")
  (net 31 "Net-(U2-Pad1)")
  (net 32 "Net-(U2-Pad3)")
  (net 33 "Net-(U2-Pad16)")
  (net 34 "Net-(U2-Pad18)")
  (net 35 "/SCL")
  (net 36 "/D1")
  (net 37 "unconnected-(IC2-Pad1)")
  (net 38 "unconnected-(IC2-Pad2)")
  (net 39 "unconnected-(IC2-Pad3)")
  (net 40 "unconnected-(IC2-Pad4)")
  (net 41 "unconnected-(IC2-Pad5)")
  (net 42 "unconnected-(IC2-Pad6)")
  (net 43 "unconnected-(IC2-Pad7)")
  (net 44 "unconnected-(IC2-Pad8)")
  (net 45 "unconnected-(IC2-Pad9)")
  (net 46 "unconnected-(IC2-Pad10)")
  (net 47 "unconnected-(IC2-Pad11)")
  (net 48 "unconnected-(IC2-Pad12)")
  (net 49 "unconnected-(IC2-Pad13)")
  (net 50 "unconnected-(IC2-Pad14)")
  (net 51 "unconnected-(IC2-Pad15)")
  (net 52 "unconnected-(IC2-Pad16)")
  (net 53 "unconnected-(IC2-Pad17)")

  (footprint "RF_Module:ESP-12E" (layer "F.Cu")
    (tedit 5A030172) (tstamp 64a423b9-92bf-4843-8efd-118cae4b025c)
    (at 51.582 39.95)
    (descr "Wi-Fi Module, http://wiki.ai-thinker.com/_media/esp8266/docs/aithinker_esp_12f_datasheet_en.pdf")
    (tags "Wi-Fi Module")
    (property "Sheetfile" "carbon_control.kicad_sch")
    (property "Sheetname" "")
    (path "/4d49530a-bff8-4910-b176-9b84a53cf302")
    (attr smd)
    (fp_text reference "U2" (at -10.56 -5.26) (layer "F.SilkS")
      (effects (font (size 1 1) (thickness 0.15)))
      (tstamp 064eed6e-92c5-4480-8916-82836825de67)
    )
    (fp_text value "ESP-12F" (at -0.06 -12.78) (layer "F.Fab")
      (effects (font (size 1 1) (thickness 0.15)))
      (tstamp 7a3e2e5e-3ef5-4234-91e4-436c78aade02)
    )
    (fp_text user "KEEP-OUT ZONE" (at 0.03 -9.55 180) (layer "Cmts.User")
      (effects (font (size 1 1) (thickness 0.15)))
      (tstamp 8f63c169-a884-4669-8210-f5b2596cd80a)
    )
    (fp_text user "Antenna" (at -0.06 -7 180) (layer "Cmts.User")
      (effects (font (size 1 1) (thickness 0.15)))
      (tstamp f28e9a72-9b85-4c8c-8ae8-2765a87ea9af)
    )
    (fp_text user "${REFERENCE}" (at 0.49 -0.8) (layer "F.Fab")
      (effects (font (size 1 1) (thickness 0.15)))
      (tstamp 36416441-fd7e-458e-b7d2-8bcaad570fff)
    )
    (fp_line (start -8.12 -12.12) (end 8.12 -12.12) (layer "F.SilkS") (width 0.12) (tstamp 08756abf-cfd2-49e8-bf3a-04b0a9552fe3))
    (fp_line (start -8.12 -4.5) (end -8.12 -12.12) (layer "F.SilkS") (width 0.12) (tstamp 0b7c991c-c1c8-4424-917a-aebac2484daf))
    (fp_line (start -6 12.12) (end -8.12 12.12) (layer "F.SilkS") (width 0.12) (tstamp 24ad0983-d7b8-4d24-a96e-a851c9e12503))
    (fp_line (start 8.12 -12.12) (end 8.12 -4.5) (layer "F.SilkS") (width 0.12) (tstamp 32e5d193-2867-4d60-9690-db2217d54b19))
    (fp_line (start 8.12 12.12) (end 6 12.12) (layer "F.SilkS") (width 0.12) (tstamp 99c6058f-c273-4949-a96e-3dc99d24977e))
    (fp_line (start -8.12 -4.5) (end -8.73 -4.5) (layer "F.SilkS") (width 0.12) (tstamp abfdf5c1-f24a-4a1e-8d0e-e1a3f985bb60))
    (fp_line (start -8.12 12.12) (end -8.12 11.5) (layer "F.SilkS") (width 0.12) (tstamp d53ecfc1-85a1-4088-be40-91b965848f56))
    (fp_line (start 8.12 11.5) (end 8.12 12.12) (layer "F.SilkS") (width 0.12) (tstamp f9aa6468-de3d-4383-8c4c-6dd5dff172d2))
    (fp_line (start -6.44 -4.8) (end 0.88 -12.12) (layer "Dwgs.User") (width 0.12) (tstamp 13db70a7-fc45-4937-a5c8-51c8779c7698))
    (fp_line (start -8.12 -9.12) (end -5.12 -12.12) (layer "Dwgs.User") (width 0.12) (tstamp 17c39424-1c10-4ecf-8e13-ee3e4cfca6f8))
    (fp_line (start -8.12 -6.12) (end -2.12 -12.12) (layer "Dwgs.User") (width 0.12) (tstamp 3b488e0d-0443-42bf-a9c6-d4ccadcf433d))
    (fp_line (start 2.56 -4.8) (end 8.12 -10.36) (layer "Dwgs.User") (width 0.12) (tstamp 5f0af9dc-777d-4310-b7d5-34ecf748419b))
    (fp_line (start 8.12 -4.8) (end -8.12 -4.8) (layer "Dwgs.User") (width 0.12) (tstamp 7e0ce913-c0db-4b8b-8f64-31dfe81a5f11))
    (fp_line (start -8.12 -12.12) (end 8.12 -12.12) (layer "Dwgs.User") (width 0.12) (tstamp a4418321-2ff8-494e-8463-a9573fee819c))
    (fp_line (start 8.12 -12.12) (end 8.12 -4.8) (layer "Dwgs.User") (width 0.12) (tstamp bc98ea82-2864-4c0e-824c-4023bf0cabb3))
    (fp_line (start -0.44 -4.8) (end 6.88 -12.12) (layer "Dwgs.User") (width 0.12) (tstamp c0260a12-722d-4980-972e-f149466fb302))
    (fp_line (start 5.56 -4.8) (end 8.12 -7.36) (layer "Dwgs.User") (width 0.12) (tstamp c0aff334-d903-4487-bb18-6ea39aefe02b))
    (fp_line (start -8.12 -4.8) (end -8.12 -12.12) (layer "Dwgs.User") (width 0.12) (tstamp d1b95d28-7ac5-437a-aaba-2acbff7348b7))
    (fp_line (start -3.44 -4.8) (end 3.88 -12.12) (layer "Dwgs.User") (width 0.12) (tstamp e41cd98a-99b4-4287-a9c1-c27ab1640a75))
    (fp_line (start -9.05 -12.2) (end 9.05 -12.2) (layer "F.CrtYd") (width 0.05) (tstamp 03900015-48b7-46e8-8d85-d15cf2676fd7))
    (fp_line (start 9.05 -12.2) (end 9.05 13.1) (layer "F.CrtYd") (width 0.05) (tstamp 6223ac84-9e36-4e41-9ca5-0ed9430b0a88))
    (fp_line (start 9.05 13.1) (end -9.05 13.1) (layer "F.CrtYd") (width 0.05) (tstamp 79c4064b-6249-42ec-8d5b-760d8fa620fd))
    (fp_line (start -9.05 13.1) (end -9.05 -12.2) (layer "F.CrtYd") (width 0.05) (tstamp f4c9dd6a-701d-45fc-9522-17e59cedf1e6))
    (fp_line (start -7.5 -3.5) (end -8 -4) (layer "F.Fab") (width 0.12) (tstamp 24bf63e7-2d02-481f-bfa6-0e3a6d10eef8))
    (fp_line (start -8 12) (end -8 -3) (layer "F.Fab") (width 0.12) (tstamp 71f2e601-ac09-4765-9de5-403d309d97b5))
    (fp_line (start 8 12) (end -8 12) (layer "F.Fab") (width 0.12) (tstamp 979c89da-22eb-4fe0-97a0-512460fff7bc))
    (fp_line (start -8 -3) (end -7.5 -3.5) (layer "F.Fab") (width 0.12) (tstamp 9f4453ff-6d96-4422-b12c-c304b6542648))
    (fp_line (start 8 -12) (end 8 12) (layer "F.Fab") (width 0.12) (tstamp a9f0558e-2fda-4f68-aa2d-d8b311877679))
    (fp_line (start -8 -12) (end 8 -12) (layer "F.Fab") (width 0.12) (tstamp ab8dab10-913c-4213-acc2-bc72150d1a75))
    (fp_line (start -8 -4) (end -8 -12) (layer "F.Fab") (width 0.12) (tstamp b8c9f41c-7737-4ccd-a87b-b3adbb07cb05))
    (pad "1" smd rect (at -7.6 -3.5) (size 2.5 1) (layers "F.Cu" "F.Paste" "F.Mask")
      (net 31 "Net-(U2-Pad1)") (pinfunction "~{RST}") (pintype "input") (tstamp b100b070-29ae-4ad9-9478-6c0e53517e93))
    (pad "2" smd rect (at -7.6 -1.5) (size 2.5 1) (layers "F.Cu" "F.Paste" "F.Mask")
      (net 29 "unconnected-(U2-Pad2)") (pinfunction "ADC") (pintype "input") (tstamp f76b760a-5738-4202-bbad-e334a65c9e6b))
    (pad "3" smd rect (at -7.6 0.5) (size 2.5 1) (layers "F.Cu" "F.Paste" "F.Mask")
      (net 32 "Net-(U2-Pad3)") (pinfunction "EN") (pintype "input") (tstamp 4ce085b8-0827-4767-b074-ecc0acbfc0c8))
    (pad "4" smd rect (at -7.6 2.5) (size 2.5 1) (layers "F.Cu" "F.Paste" "F.Mask")
      (net 23 "unconnected-(U2-Pad4)") (pinfunction "GPIO16") (pintype "bidirectional") (tstamp 7ee42dae-f6f0-440c-aaee-5cb9970f8958))
    (pad "5" smd rect (at -7.6 4.5) (size 2.5 1) (layers "F.Cu" "F.Paste" "F.Mask")
      (net 35 "/SCL") (pinfunction "GPIO14") (pintype "bidirectional") (tstamp 51886017-500c-41b2-ab38-7a2cc5fd1de4))
    (pad "6" smd rect (at -7.6 6.5) (size 2.5 1) (layers "F.Cu" "F.Paste" "F.Mask")
      (net 22 "unconnected-(U2-Pad6)") (pinfunction "GPIO12") (pintype "bidirectional") (tstamp f2fdd1d2-54f7-41da-9940-66a1fbfbc82a))
    (pad "7" smd rect (at -7.6 8.5) (size 2.5 1) (layers "F.Cu" "F.Paste" "F.Mask")
      (net 21 "unconnected-(U2-Pad7)") (pinfunction "GPIO13") (pintype "bidirectional") (tstamp 4af67271-034f-4100-b5ca-d10686241402))
    (pad "8" smd rect (at -7.6 10.5) (size 2.5 1) (layers "F.Cu" "F.Paste" "F.Mask")
      (net 27 "+3V3") (pinfunction "VCC") (pintype "power_in") (tstamp 8a9afd38-1254-42cb-a111-63d73f55032a))
    (pad "9" smd rect (at -5 12) (size 1 1.8) (layers "F.Cu" "F.Paste" "F.Mask")
      (net 20 "unconnected-(U2-Pad9)") (pinfunction "CS0") (pintype "input") (tstamp d8141c58-8b5d-4566-8d45-34b14c774a7e))
    (pad "10" smd rect (at -3 12) (size 1 1.8) (layers "F.Cu" "F.Paste" "F.Mask")
      (net 19 "unconnected-(U2-Pad10)") (pinfunction "MISO") (pintype "bidirectional") (tstamp 3ca0c190-8422-4639-bee1-ef3b28b3a672))
    (pad "11" smd rect (at -1 12) (size 1 1.8) (layers "F.Cu" "F.Paste" "F.Mask")
      (net 18 "unconnected-(U2-Pad11)") (pinfunction "GPIO9") (pintype "bidirectional") (tstamp 42a81118-3b2b-47bd-bc1d-f00037264b7c))
    (pad "12" smd rect (at 1 12) (size 1 1.8) (layers "F.Cu" "F.Paste" "F.Mask")
      (net 17 "unconnected-(U2-Pad12)") (pinfunction "GPIO10") (pintype "bidirectional") (tstamp df27d25e-6141-4cdc-b23a-065946cf981e))
    (pad "13" smd rect (at 3 12) (size 1 1.8) (layers "F.Cu" "F.Paste" "F.Mask")
      (net 16 "unconnected-(U2-Pad13)") (pinfunction "MOSI") (pintype "bidirectional") (tstamp 206b8176-8562-4ecb-b9bf-665ba96cd17f))
    (pad "14" smd rect (at 5 12) (size 1 1.8) (layers "F.Cu" "F.Paste" "F.Mask")
      (net 15 "unconnected-(U2-Pad14)") (pinfunction "SCLK") (pintype "bidirectional") (tstamp 4332b31b-0803-4bb0-8e5e-d289e4e3c8d1))
    (pad "15" smd rect (at 7.6 10.5) (size 2.5 1) (layers "F.Cu" "F.Paste" "F.Mask")
      (net 28 "GND") (pinfunction "GND") (pintype "power_in") (tstamp a92381c1-9400-46c7-a7c1-5b4073a4f5d9))
    (pad "16" smd rect (at 7.6 8.5) (size 2.5 1) (layers "F.Cu" "F.Paste" "F.Mask")
      (net 33 "Net-(U2-Pad16)") (pinfunction "GPIO15") (pintype "bidirectional") (tstamp 2858424b-6060-4d52-985f-4a62eede8c02))
    (pad "17" smd rect (at 7.6 6.5) (size 2.5 1) (layers "F.Cu" "F.Paste" "F.Mask")
      (net 30 "/SDA") (pinfunction "GPIO2") (pintype "bidirectional") (tstamp f5c31ba9-3130-451d-9b53-0ebfbf587c33))
    (pad "18" smd rect (at 7.6 4.5) (size 2.5 1) (layers "F.Cu" "F.Paste" "F.Mask")
      (net 34 "Net-(U2-Pad18)") (pinfunction "GPIO0") (pintype "bidirectional") (tstamp 1ba0ce7d-0c6f-4491-9ba2-f7c8f4a51d6f))
    (pad "19" smd rect (at 7.6 2.5) (size 2.5 1) (layers "F.Cu" "F.Paste" "F.Mask")
      (net 24 "unconnected-(U2-Pad19)") (pinfunction "GPIO4") (pintype "bidirectional") (tstamp 04986d93-2d53-4169-9bb4-f8e219c2ae73))
    (pad "20" smd rect (at 7.6 0.5) (size 2.5 1) (layers "F.Cu" "F.Paste" "F.Mask")
      (net 36 "/D1") (pinfunction "GPIO5") (pintype "bidirectional") (tstamp 2ce64b30-5206-4ff5-9011-10493e25e7d1))
    (pad "21" smd rect (at 7.6 -1.5) (size 2.5 1) (layers "F.Cu" "F.Paste" "F.Mask")
      (net 25 "unconnected-(U2-Pad21)") (pinfunction "GPIO3/RXD") (pintype "bidirectional") (tstamp 71bfd0f1-5a1d-4180-b08e-34f0590cab6b))
    (pad "22" smd rect (at 7.6 -3.5) (size 2.5 1) (layers "F.Cu" "F.Paste" "F.Mask")
      (net 26 "unconnected-(U2-Pad22)") (pinfunction "GPIO1/TXD") (pintype "bidirectional") (tstamp 3e957086-8ebe-4281-869c-8db0d4bd1a73))
    (model "${KICAD6_3DMODEL_DIR}/RF_Module.3dshapes/ESP-12E.wrl"
      (offset (xyz 0 0 0))
      (scale (xyz 1 1 1))
      (rotate (xyz 0 0 0))
    )
  )

  (footprint "SCD40-D-R2:SCD40DR2" (layer "F.Cu")
    (tedit 0) (tstamp 669efa27-3799-48e0-980a-7f7405251fc8)
    (at 86.487 33.909)
    (descr "SCD40-D-R2-1")
    (tags "Integrated Circuit")
    (property "Description" "Air Quality Sensor CO2 Sensor 2.5V/3.3V/5V 20-Pin SMD EP")
    (property "Height" "6.8")
    (property "Manufacturer_Name" "Sensirion")
    (property "Manufacturer_Part_Number" "SCD40-D-R2")
    (property "Mouser Part Number" "403-SCD40-D-R2")
    (property "Mouser Price/Stock" "https://www.mouser.co.uk/ProductDetail/Sensirion/SCD40-D-R2?qs=HBWAp0VN4RjIKW%252BlMeZn1w%3D%3D")
    (property "Sheetfile" "carbon_control.kicad_sch")
    (property "Sheetname" "")
    (path "/78aeeaf1-e5a8-4ba6-9720-a3d4f4984cf7")
    (attr smd)
    (fp_text reference "IC1" (at 0 0) (layer "F.SilkS")
      (effects (font (size 1.27 1.27) (thickness 0.254)))
      (tstamp 71a055bd-72d5-4ecc-a050-f93859916189)
    )
    (fp_text value "SCD40-D-R2" (at 0 0) (layer "F.SilkS") hide
      (effects (font (size 1.27 1.27) (thickness 0.254)))
      (tstamp cd74a627-7306-415e-baf4-0203a1b0ab9e)
    )
    (fp_text user "${REFERENCE}" (at 0 0) (layer "F.Fab")
      (effects (font (size 1.27 1.27) (thickness 0.254)))
      (tstamp eeb6afd2-3b0a-4904-a170-3386013ab6c9)
    )
    (fp_line (start -5.6 -2.6) (end -5.6 -2.6) (layer "F.SilkS") (width 0.2) (tstamp 0e15ff48-3859-4519-ab74-b60c0295e4a5))
    (fp_line (start 3.5 5.05) (end 5.05 5.05) (layer "F.SilkS") (width 0.2) (tstamp 36f6ae3c-ef64-4b29-8151-a955bfe5c8b5))
    (fp_line (start 5.05 -5.05) (end 5.05 -3.5) (layer "F.SilkS") (width 0.2) (tstamp 4f6945dc-cc15-4118-aec9-f40edf22c23d))
    (fp_line (start 5.05 5.05) (end 5.05 3.5) (layer "F.SilkS") (width 0.2) (tstamp 7da2bcf0-b4a3-4a6b-a555-e42125be5577))
    (fp_line (start -3.5 5.05) (end -5.05 5.05) (layer "F.SilkS") (width 0.2) (tstamp a1e03189-0873-4238-9b71-998d44f01109))
    (fp_line (start -3.5 -5.05) (end -5.05 -5.05) (layer "F.SilkS") (width 0.2) (tstamp a464fb10-a79d-48d5-9567-0faac5840c63))
    (fp_line (start -5.05 -5.05) (end -5.05 -3.5) (layer "F.SilkS") (width 0.2) (tstamp ab60d059-481e-4fa0-a604-b03003430cd6))
    (fp_line (start -5.05 5.05) (end -5.05 3.5) (layer "F.SilkS") (width 0.2) (tstamp ba135d5c-219e-4393-85be-af298569f4cf))
    (fp_line (start -5.6 -2.4) (end -5.6 -2.4) (layer "F.SilkS") (width 0.2) (tstamp d5a67c63-4de7-4cf6-bcd0-8244590fdbb3))
    (fp_line (start 3.5 -5.05) (end 5.05 -5.05) (layer "F.SilkS") (width 0.2) (tstamp edcc80d7-f0a7-43f5-ad34-98c503a6f1eb))
    (fp_arc (start -5.6 -2.4) (mid -5.7 -2.5) (end -5.6 -2.6) (layer "F.SilkS") (width 0.2) (tstamp 35f8d9de-585d-42d2-90f9-1944b856b85e))
    (fp_arc (start -5.6 -2.6) (mid -5.5 -2.5) (end -5.6 -2.4) (layer "F.SilkS") (width 0.2) (tstamp d17a3175-26b1-46d9-b4a5-126f4a87b936))
    (fp_line (start -6.05 -6.05) (end 6.05 -6.05) (layer "F.CrtYd") (width 0.1) (tstamp 02b0b4a9-af34-49a5-9fbe-ca3465c16a4b))
    (fp_line (start 6.05 -6.05) (end 6.05 6.05) (layer "F.CrtYd") (width 0.1) (tstamp 546c7e4b-1464-4924-a86b-af3fa4f8b731))
    (fp_line (start 6.05 6.05) (end -6.05 6.05) (layer "F.CrtYd") (width 0.1) (tstamp 7b672489-2641-4fe6-8f87-cb6ae5c9f8c8))
    (fp_line (start -6.05 6.05) (end -6.05 -6.05) (layer "F.CrtYd") (width 0.1) (tstamp a5323771-5ccb-4d0d-b118-cd57dcc7b6cd))
    (fp_line (start 5.05 5.05) (end -5.05 5.05) (layer "F.Fab") (width 0.1) (tstamp 2b4d0731-66a8-464e-8290-5cdc01f0617c))
    (fp_line (start 5.05 -5.05) (end 5.05 5.05) (layer "F.Fab") (width 0.1) (tstamp 43260725-9667-41e1-a6f8-84a05e43bbfa))
    (fp_line (start -5.05 5.05) (end -5.05 -5.05) (layer "F.Fab") (width 0.1) (tstamp 53ca95cd-6e7d-48cc-a88e-10155c171f9d))
    (fp_line (start -5.05 -5.05) (end 5.05 -5.05) (layer "F.Fab") (width 0.1) (tstamp af1c800f-b493-4b5c-a96c-b7f3734490d1))
    (pad "1" smd rect (at -4 -2.5 90) (size 0.8 1.5) (layers "F.Cu" "F.Paste" "F.Mask")
      (net 1 "unconnected-(IC1-Pad1)") (pinfunction "DNC_1") (pintype "passive") (tstamp 424dee58-930a-4a9d-8020-ee4cb636cc24))
    (pad "2" smd rect (at -4 -1.25 90) (size 0.8 1.5) (layers "F.Cu" "F.Paste" "F.Mask")
      (net 2 "unconnected-(IC1-Pad2)") (pinfunction "DNC_2") (pintype "passive") (tstamp 4e0a6a0b-e5f0-4f72-a93f-51774f4d3e23))
    (pad "3" smd rect (at -4 0 90) (size 0.8 1.5) (layers "F.Cu" "F.Paste" "F.Mask")
      (net 3 "unconnected-(IC1-Pad3)") (pinfunction "DNC_3") (pintype "passive") (tstamp bb30872d-2517-4ac3-abe7-30864aaf8fa9))
    (pad "4" smd rect (at -4 1.25 90) (size 0.8 1.5) (layers "F.Cu" "F.Paste" "F.Mask")
      (net 4 "unconnected-(IC1-Pad4)") (pinfunction "DNC_4") (pintype "passive") (tstamp e087e4b6-4fa4-4da0-a192-035c5bb1b897))
    (pad "5" smd rect (at -4 2.5 90) (size 0.8 1.5) (layers "F.Cu" "F.Paste" "F.Mask")
      (net 5 "unconnected-(IC1-Pad5)") (pinfunction "DNC_5") (pintype "passive") (tstamp b671e04d-9b1a-4001-859b-ffeb8697eb70))
    (pad "6" smd rect (at -2.5 4) (size 0.8 1.5) (layers "F.Cu" "F.Paste" "F.Mask")
      (net 28 "GND") (pinfunction "GND_1") (pintype "passive") (tstamp 9f582a01-020d-43ee-b626-e5b4c06bc722))
    (pad "7" smd rect (at -1.25 4) (size 0.8 1.5) (layers "F.Cu" "F.Paste" "F.Mask")
      (net 27 "+3V3") (pinfunction "VDD") (pintype "passive") (tstamp 7f8a5587-b786-42d8-8766-d10bc9ce032b))
    (pad "8" smd rect (at 0 4) (size 0.8 1.5) (layers "F.Cu" "F.Paste" "F.Mask")
      (net 6 "unconnected-(IC1-Pad8)") (pinfunction "DNC_6") (pintype "passive") (tstamp e9de8e45-821c-4a78-8746-fe03e3281576))
    (pad "9" smd rect (at 1.25 4) (size 0.8 1.5) (layers "F.Cu" "F.Paste" "F.Mask")
      (net 35 "/SCL") (pinfunction "SCL") (pintype "passive") (tstamp 3f38011c-507a-43b1-879a-76755d092a1c))
    (pad "10" smd rect (at 2.5 4) (size 0.8 1.5) (layers "F.Cu" "F.Paste" "F.Mask")
      (net 30 "/SDA") (pinfunction "SDA") (pintype "passive") (tstamp 7b949dcc-db05-4a0a-83b0-8dfa7b934603))
    (pad "11" smd rect (at 4 2.5 90) (size 0.8 1.5) (layers "F.Cu" "F.Paste" "F.Mask")
      (net 7 "unconnected-(IC1-Pad11)") (pinfunction "DNC_7") (pintype "passive") (tstamp ba898288-86c5-49dd-94bf-a662fb2643b0))
    (pad "12" smd rect (at 4 1.25 90) (size 0.8 1.5) (layers "F.Cu" "F.Paste" "F.Mask")
      (net 8 "unconnected-(IC1-Pad12)") (pinfunction "DNC_8") (pintype "passive") (tstamp 14b5d5e2-2d9c-4aed-84cb-a5a192ecabf5))
    (pad "13" smd rect (at 4 0 90) (size 0.8 1.5) (layers "F.Cu" "F.Paste" "F.Mask")
      (net 9 "unconnected-(IC1-Pad13)") (pinfunction "DNC_9") (pintype "passive") (tstamp 7e80dd9d-89c4-4796-824d-d1bc4381ac26))
    (pad "14" smd rect (at 4 -1.25 90) (size 0.8 1.5) (layers "F.Cu" "F.Paste" "F.Mask")
      (net 10 "unconnected-(IC1-Pad14)") (pinfunction "DNC_10") (pintype "passive") (tstamp 8305ce63-aa87-4226-aa61-a814e9005c59))
    (pad "15" smd rect (at 4 -2.5 90) (size 0.8 1.5) (layers "F.Cu" "F.Paste" "F.Mask")
      (net 11 "unconnected-(IC1-Pad15)") (pinfunction "DNC_11") (pintype "passive") (tstamp 21cefa2e-f9fb-4040-ba70-7b6c2796507c))
    (pad "16" smd rect (at 2.5 -4) (size 0.8 1.5) (layers "F.Cu" "F.Paste" "F.Mask")
      (net 12 "unconnected-(IC1-Pad16)") (pinfunction "DNC_12") (pintype "passive") (tstamp a530f78f-9485-45e6-a020-fd1ab79548b7))
    (pad "17" smd rect (at 1.25 -4) (size 0.8 1.5) (layers "F.Cu" "F.Paste" "F.Mask")
      (net 13 "unconnected-(IC1-Pad17)") (pinfunction "DNC_13") (pintype "passive") (tstamp 84b48d7b-7b08-4382-80cf-44783175ef20))
    (pad "18" smd rect (at 0 -4) (size 0.8 1.5) (layers "F.Cu" "F.Paste" "F.Mask")
      (net 14 "unconnected-(IC1-Pad18)") (pinfunction "DNC_14") (pintype "passive") (tstamp 2ed665c0-ffc1-4085-b922-60c232e8a770))
    (pad "19" smd rect (at -1.25 -4) (size 0.8 1.5) (layers "F.Cu" "F.Paste" "F.Mask")
      (net 27 "+3V3") (pinfunction "VDDH") (pintype "passive") (tstamp a6e62a6f-c066-4457-a6f0-f04168b3809f))
    (pad "20" smd rect (at -2.5 -4) (size 0.8 1.5) (layers "F.Cu" "F.Paste" "F.Mask")
      (net 28 "GND") (pinfunction "GND_2") (pintype "passive") (tstamp a67f0f49-d0b4-4380-9be0-367f5b64d85d))
    (pad "21" smd rect (at 0 0) (size 4.8 4.8) (layers "F.Cu" "F.Paste" "F.Mask")
      (net 28 "GND") (pinfunction "GND_3") (pintype "passive") (tstamp 3ac52ab0-b4aa-4b02-80d4-f689f508829f))
    (model "SCD40-D-R2.stp"
      (offset (xyz 0 0 0))
      (scale (xyz 1 1 1))
      (rotate (xyz 0 0 0))
    )
  )

  (footprint "MAX98357AETE:QFN50P300X300X80-17N" (layer "F.Cu")
    (tedit 0) (tstamp 8c3ebe0d-014d-4906-816f-56e9186db923)
    (at 70.6 28.014)
    (descr "MAX98357AETE+")
    (tags "Integrated Circuit")
    (property "Description" "MAXIM INTEGRATED PRODUCTS - MAX98357AETE+ - AMPLIFIER, CLASS-D, 1-CH, 3.2W, TQFN-16")
    (property "Height" "0.8")
    (property "Manufacturer_Name" "Maxim Integrated")
    (property "Manufacturer_Part_Number" "MAX98357AETE+")
    (property "Mouser Part Number" "700-MAX98357AETE+")
    (property "Mouser Price/Stock" "https://www.mouser.co.uk/ProductDetail/Maxim-Integrated/MAX98357AETE%2b?qs=AAveGqk956EyS6m3AmZeuw%3D%3D")
    (property "Sheetfile" "carbon_control.kicad_sch")
    (property "Sheetname" "")
    (path "/edd387e4-aae9-45c8-867e-81720cad2d1e")
    (attr smd)
    (fp_text reference "IC2" (at 0 0) (layer "F.SilkS")
      (effects (font (size 1.27 1.27) (thickness 0.254)))
      (tstamp 80d5b919-4eb1-4ad6-a683-814af6c536b4)
    )
    (fp_text value "MAX98357AETE+" (at 0 0) (layer "F.SilkS") hide
      (effects (font (size 1.27 1.27) (thickness 0.254)))
      (tstamp b5c5a79b-9605-4548-9912-d982d1f17da0)
    )
    (fp_text user "${REFERENCE}" (at 0 0) (layer "F.Fab")
      (effects (font (size 1.27 1.27) (thickness 0.254)))
      (tstamp b5b9de33-137c-46db-ba14-0850bfab8ff3)
    )
    (fp_circle (center -1.875 -1.5) (end -1.875 -1.375) (layer "F.SilkS") (width 0.25) (fill none) (tstamp f47098fd-dd17-4651-a873-0bbc199951da))
    (fp_line (start -2.125 -2.125) (end 2.125 -2.125) (layer "F.CrtYd") (width 0.05) (tstamp 27381990-470e-4a26-8f9d-160290b54264))
    (fp_line (start -2.125 2.125) (end -2.125 -2.125) (layer "F.CrtYd") (width 0.05) (tstamp afd7ba8f-efbd-422a-846e-30a55ac71e09))
    (fp_line (start 2.125 2.125) (end -2.125 2.125) (layer "F.CrtYd") (width 0.05) (tstamp c5d28a7c-88ba-4bdd-9eb9-ac6fdd03bb5a))
    (fp_line (start 2.125 -2.125) (end 2.125 2.125) (layer "F.CrtYd") (width 0.05) (tstamp d11d6b24-9684-4a0d-a9c2-082b3ed4c1c4))
    (fp_line (start -1.5 -1.5) (end 1.5 -1.5) (layer "F.Fab") (width 0.1) (tstamp 0770d3bb-648e-44fb-a285-7011409d7e3f))
    (fp_line (start -1.5 -1) (end -1 -1.5) (layer "F.Fab") (width 0.1) (tstamp 2a698e19-d1b4-4900-ab45-156c58bbe22c))
    (fp_line (start -1.5 1.5) (end -1.5 -1.5) (layer "F.Fab") (width 0.1) (tstamp 2e36f2b4-fc97-4923-b0b1-aba69dab0384))
    (fp_line (start 1.5 -1.5) (end 1.5 1.5) (layer "F.Fab") (width 0.1) (tstamp 61446237-ea0d-4970-aec1-cbc03a3ab68b))
    (fp_line (start 1.5 1.5) (end -1.5 1.5) (layer "F.Fab") (width 0.1) (tstamp 78aa8c32-9ae8-4411-8ffb-b688bce6f519))
    (pad "1" smd rect locked (at -1.45 -0.75 90) (size 0.3 0.85) (layers "F.Cu" "F.Paste" "F.Mask")
      (net 37 "unconnected-(IC2-Pad1)") (pinfunction "DIN") (pintype "passive") (tstamp 3ac8fc70-2931-4503-90fe-66d2fe951032))
    (pad "2" smd rect locked (at -1.45 -0.25 90) (size 0.3 0.85) (layers "F.Cu" "F.Paste" "F.Mask")
      (net 38 "unconnected-(IC2-Pad2)") (pinfunction "GAIN_SLOT") (pintype "passive") (tstamp f257b669-5dde-4869-a3f9-c1a40036447b))
    (pad "3" smd rect locked (at -1.45 0.25 90) (size 0.3 0.85) (layers "F.Cu" "F.Paste" "F.Mask")
      (net 39 "unconnected-(IC2-Pad3)") (pinfunction "GND_1") (pintype "passive") (tstamp 02f5fb7a-a8d3-466a-ae6a-31951ba3412e))
    (pad "4" smd rect locked (at -1.45 0.75 90) (size 0.3 0.85) (layers "F.Cu" "F.Paste" "F.Mask")
      (net 40 "unconnected-(IC2-Pad4)") (pinfunction "~{SD_MODE}") (pintype "passive") (tstamp 27538ffa-9665-4c82-ad2a-8cafb652cfc3))
    (pad "5" smd rect locked (at -0.75 1.45) (size 0.3 0.85) (layers "F.Cu" "F.Paste" "F.Mask")
      (net 41 "unconnected-(IC2-Pad5)") (pinfunction "N.C._1") (pintype "passive") (tstamp e9124778-f006-4993-94a0-a1b867e23c7b))
    (pad "6" smd rect locked (at -0.25 1.45) (size 0.3 0.85) (layers "F.Cu" "F.Paste" "F.Mask")
      (net 42 "unconnected-(IC2-Pad6)") (pinfunction "N.C._2") (pintype "passive") (tstamp 7b4caf96-9766-475e-acb9-63ebaddd7378))
    (pad "7" smd rect locked (at 0.25 1.45) (size 0.3 0.85) (layers "F.Cu" "F.Paste" "F.Mask")
      (net 43 "unconnected-(IC2-Pad7)") (pinfunction "VDD_1") (pintype "passive") (tstamp 95bd2843-d040-4848-931f-4cc33921b29a))
    (pad "8" smd rect locked (at 0.75 1.45) (size 0.3 0.85) (layers "F.Cu" "F.Paste" "F.Mask")
      (net 44 "unconnected-(IC2-Pad8)") (pinfunction "VDD_2") (pintype "passive") (tstamp 71283713-139b-4c61-bc7f-581fa2ca374f))
    (pad "9" smd rect locked (at 1.45 0.75 90) (size 0.3 0.85) (layers "F.Cu" "F.Paste" "F.Mask")
      (net 45 "unconnected-(IC2-Pad9)") (pinfunction "OUTP") (pintype "passive") (tstamp c6cf4306-3f8d-4ab5-a905-3a8d4af5ed31))
    (pad "10" smd rect locked (at 1.45 0.25 90) (size 0.3 0.85) (layers "F.Cu" "F.Paste" "F.Mask")
      (net 46 "unconnected-(IC2-Pad10)") (pinfunction "OUTN") (pintype "passive") (tstamp df7a180f-5937-4028-856a-75d1fede6566))
    (pad "11" smd rect locked (at 1.45 -0.25 90) (size 0.3 0.85) (layers "F.Cu" "F.Paste" "F.Mask")
      (net 47 "unconnected-(IC2-Pad11)") (pinfunction "GND_2") (pintype "passive") (tstamp 290f8684-df12-4702-b14f-7386f30f50fe))
    (pad "12" smd rect locked (at 1.45 -0.75 90) (size 0.3 0.85) (layers "F.Cu" "F.Paste" "F.Mask")
      (net 48 "unconnected-(IC2-Pad12)") (pinfunction "N.C._3") (pintype "passive") (tstamp a497fc2c-34ef-42c7-8a76-82132079be85))
    (pad "13" smd rect locked (at 0.75 -1.45) (size 0.3 0.85) (layers "F.Cu" "F.Paste" "F.Mask")
      (net 49 "unconnected-(IC2-Pad13)") (pinfunction "N.C._4") (pintype "passive") (tstamp 975e9432-630e-431d-8b26-c3c77f21a84f))
    (pad "14" smd rect locked (at 0.25 -1.45) (size 0.3 0.85) (layers "F.Cu" "F.Paste" "F.Mask")
      (net 50 "unconnected-(IC2-Pad14)") (pinfunction "LRCLK") (pintype "passive") (tstamp 00539597-9654-464f-98bf-a4e70b35af7f))
    (pad "15" smd rect locked (at -0.25 -1.45) (size 0.3 0.85) (layers "F.Cu" "F.Paste" "F.Mask")
      (net 51 "unconnected-(IC2-Pad15)") (pinfunction "GND_3") (pintype "passive") (tstamp 6281f947-e3ba-432a-b905-a5dadd62e4d5))
    (pad "16" smd rect locked (at -0.75 -1.45) (size 0.3 0.85) (layers "F.Cu" "F.Paste" "F.Mask")
      (net 52 "unconnected-(IC2-Pad16)") (pinfunction "BCLK") (pintype "passive") (tstamp e382a90c-55aa-4d9f-82e6-56ab4f8616a4))
    (pad "17" smd rect locked (at 0 0) (size 1.25 1.25) (layers "F.Cu" "F.Paste" "F.Mask")
      (net 53 "unconnected-(IC2-Pad17)") (pinfunction "GND_4") (pintype "passive") (tstamp 498a35ba-d1ee-4ba5-b16b-8e050d91c24e))
    (model "MAX98357AETE+.stp"
      (offset (xyz 0 0 0))
      (scale (xyz 1 1 1))
      (rotate (xyz 0 0 0))
    )
  )

  (footprint "EKMB1101111:EKMB1101111" (layer "F.Cu")
    (tedit 0) (tstamp b814d14d-688f-4f0a-b7af-87bbfe1989ea)
    (at 70.612 69.469)
    (descr "EKMB1101111")
    (tags "Undefined or Miscellaneous")
    (property "Description" "EKMB1101111 Panasonic, EKMB1 PIR Sensor Pyroelectric Infrared Sensor, 5m 3-Pin TO-5 1A")
    (property "Height" "14.4")
    (property "Manufacturer_Name" "Panasonic")
    (property "Manufacturer_Part_Number" "EKMB1101111")
    (property "Mouser Part Number" "769-EKMB1101111")
    (property "Mouser Price/Stock" "https://www.mouser.co.uk/ProductDetail/Panasonic-Industrial-Devices/EKMB1101111?qs=raAh8RbVwI5c%252B5sv4MPj2A%3D%3D")
    (property "Sheetfile" "carbon_control.kicad_sch")
    (property "Sheetname" "")
    (path "/7661ce35-d0d7-4e5f-af3c-cb73d7d6df82")
    (attr through_hole)
    (fp_text reference "U1" (at -2.54 0) (layer "F.SilkS")
      (effects (font (size 1.27 1.27) (thickness 0.254)))
      (tstamp 2bebeb4d-3b78-44b1-9d84-649cd389bb68)
    )
    (fp_text value "EKMB1101111" (at -2.54 0) (layer "F.SilkS") hide
      (effects (font (size 1.27 1.27) (thickness 0.254)))
      (tstamp 43c5cae4-12c2-455f-bffb-b1125b221476)
    )
    (fp_text user "${REFERENCE}" (at -2.54 0) (layer "F.Fab")
      (effects (font (size 1.27 1.27) (thickness 0.254)))
      (tstamp 20b8b1d3-3d67-4311-99ca-ce5363c0cad0)
    )
    (fp_line (start 3.5 0) (end 3.5 0) (layer "F.SilkS") (width 0.2) (tstamp 58619200-b6d6-4679-92d1-d0b7beb0cc14))
    (fp_line (start 2.96 0) (end 2.96 0) (layer "F.SilkS") (width 0.2) (tstamp 5e340bdf-fefa-4edd-b87a-576055dc1fd2))
    (fp_line (start -8.04 0) (end -8.04 0) (layer "F.SilkS") (width 0.2) (tstamp 9044a85d-b0c4-4a95-aa77-675f2cd3baa5))
    (fp_line (start 3.4 0) (end 3.4 0) (layer "F.SilkS") (width 0.2) (tstamp a4a2146a-e8cd-4ce6-9d81-0a5a4cdb527b))
    (fp_line (start 3.4 0) (end 3.5 0) (layer "F.SilkS") (width 0.2) (tstamp e4682823-385a-4172-a75b-11d643207193))
    (fp_arc (start 2.96 0) (mid -2.54 5.5) (end -8.04 0) (layer "F.SilkS") (width 0.2) (tstamp 79e1e06c-ee29-4019-ab63-814e135dc6e9))
    (fp_arc (start 3.4 0) (mid 3.45 -0.05) (end 3.5 0) (layer "F.SilkS") (width 0.2) (tstamp a195d4d6-dccb-42f9-810a-20072ff80d15))
    (fp_arc (start -8.04 0) (mid -2.54 -5.5) (end 2.96 0) (layer "F.SilkS") (width 0.2) (tstamp a4774ef3-8ee0-468e-bb35-c49d3c44c8e0))
    (fp_arc (start 3.5 0) (mid 3.45 0.05) (end 3.4 0) (layer "F.SilkS") (width 0.2) (tstamp c30b2d62-2f70-48af-b033-fad590773f06))
    (fp_line (start 3.96 -6.5) (end -9.04 -6.5) (layer "F.CrtYd") (width 0.1) (tstamp 13e7adba-d74a-4f6e-9b14-a34cfcbb0c04))
    (fp_line (start -9.04 -6.5) (end -9.04 6.5) (layer "F.CrtYd") (width 0.1) (tstamp 36eaaa5c-349a-4d02-98e2-a9ca1cebf08b))
    (fp_line (start 3.96 6.5) (end 3.96 -6.5) (layer "F.CrtYd") (width 0.1) (tstamp 7693c0bc-10ff-4cf7-93ba-cfdd6adc663d))
    (fp_line (start -9.04 6.5) (end 3.96 6.5) (layer "F.CrtYd") (width 0.1) (tstamp 7e7ca5ef-4909-406c-b75a-aa77cdd99878))
    (fp_line (start 2.96 0) (end 2.96 0) (layer "F.Fab") (width 0.1) (tstamp 1e277e24-e29c-4501-ac1b-eb73c4a5b673))
    (fp_line (start -8.04 0) (end -8.04 0) (layer "F.Fab") (width 0.1) (tstamp 36c837c5-f5e4-4c8e-8047-aba310d2e05a))
    (fp_arc (start 2.96 0) (mid -2.54 5.5) (end -8.04 0) (layer "F.Fab") (width 0.1) (tstamp 114cf2f4-ed68-45b3-8f6e-c9f0e118117f))
    (fp_arc (start -8.04 0) (mid -2.54 -5.5) (end 2.96 0) (layer "F.Fab") (width 0.1) (tstamp 11aedf92-b718-4d3b-a97a-29c984cbf0c9))
    (pad "1" thru_hole circle (at 0 0) (size 1.192 1.192) (drill 0.65) (layers *.Cu *.Mask)
      (net 27 "+3V3") (pinfunction "VDD") (pintype "passive") (tstamp 27dd3359-2504-40d8-b367-e26525d87ef7))
    (pad "2" thru_hole circle (at -2.54 -2.54) (size 1.192 1.192) (drill 0.65) (layers *.Cu *.Mask)
      (net 36 "/D1") (pinfunction "OUT") (pintype "passive") (tstamp d0d7d96e-e106-4edb-ac94-532b7c48cfd2))
    (pad "3" thru_hole circle (at -5.08 0) (size 1.192 1.192) (drill 0.65) (layers *.Cu *.Mask)
      (net 28 "GND") (pinfunction "GND") (pintype "passive") (tstamp e7a65e0e-1812-471a-a1e9-15c100166175))
    (model "EKMB1101111.stp"
      (offset (xyz 0 0 0))
      (scale (xyz 1 1 1))
      (rotate (xyz 0 0 0))
    )
  )

)
